{
  "appName": {
    "message": "linkBucket",
    "description": "The name of the application"
  },
  "appDescription": {
    "message": "Save your links for later",
    "description": "The description of the application"
  }
}
